{
	"info": {
		"_postman_id": "d28ae84c-dc77-42e5-8762-b525803de7dd",
		"name": "Posts",
		"schema": "https://schema.getpostman.com/json/collection/v2.1.0/collection.json"
	},
	"item": [
		{
			"name": "Get All Posts",
			"request": {
				"method": "GET",
				"header": [],
				"url": {
					"raw": "http://172.31.32.155:3001/post",
					"protocol": "http",
					"host": [
						"172",
						"31",
						"32",
						"155"
					],
					"port": "3001",
					"path": [
						"post"
					]
				}
			},
			"response": []
		},
		{
			"name": "Delete a Post",
			"request": {
				"method": "DELETE",
				"header": [],
				"url": {
					"raw": "http://172.31.32.155:3001/post?id=1",
					"protocol": "http",
					"host": [
						"172",
						"31",
						"32",
						"155"
					],
					"port": "3001",
					"path": [
						"post"
					],
					"query": [
						{
							"key": "id",
							"value": "1"
						}
					]
				}
			},
			"response": []
		}
	]
}